﻿<?xml version="1.0" encoding="utf-8"?>
<svg version="1.1" xmlns:xlink="http://www.w3.org/1999/xlink" width="128px" height="25px" viewBox="116 231  128 25" xmlns="http://www.w3.org/2000/svg">
  <path d="M 117 236  A 4 4 0 0 1 121 232 L 239 232  A 4 4 0 0 1 243 236 L 243 251  A 4 4 0 0 1 239 255 L 121 255  A 4 4 0 0 1 117 251 L 117 236  Z " fill-rule="nonzero" fill="#ffffff" stroke="none" />
</svg>