﻿<?xml version="1.0" encoding="utf-8"?>
<svg version="1.1" xmlns:xlink="http://www.w3.org/1999/xlink" width="15px" height="14px" xmlns="http://www.w3.org/2000/svg">
  <g transform="matrix(1 0 0 1 -143 -704 )">
    <path d="M 1.812529663028 0.312488647483114  L 14.6000046874908 13.099963671946  C 14.3788137132545 13.4544551670798  14.0795174228175 13.7537514575167  13.7250259276837 13.9749424317531  L 0.937550903220892 1.18746740729022  C 0.698371682867808 0.943424915185712  0.702356050085839 0.551667867836198  0.946398542190348 0.312488647483114  C 1.18698400979686 0.0767078579924672  1.57194419542149 0.0767078579924672  1.812529663028 0.312488647483114  Z " fill-rule="nonzero" fill="#fafafa" stroke="none" transform="matrix(1 0 0 1 143 704 )" />
  </g>
</svg>