﻿<?xml version="1.0" encoding="utf-8"?>
<svg version="1.1" xmlns:xlink="http://www.w3.org/1999/xlink" width="15px" height="14px" xmlns="http://www.w3.org/2000/svg">
  <g transform="matrix(1 0 0 1 -93 -260 )">
    <path d="M 7.5 13.79  C 11.5708828125 13.79  14.8828125 10.698865625  14.8828125 6.899375  C 14.8828125 3.099884375  11.5708828125 0.00875  7.5 0.00875  C 3.4291171875 0.00875  0.1171875 3.099884375  0.1171875 6.899375  C 0.1171875 10.698865625  3.4291171875 13.79  7.5 13.79  Z M 7.5 12.805625  C 4.010671875 12.805625  1.171875 10.15608125  1.171875 6.899375  C 1.171875 3.64266875  4.010671875 0.993125  7.5 0.993125  C 10.989328125 0.993125  13.828125 3.64266875  13.828125 6.899375  C 13.828125 10.15608125  10.989328125 12.805625  7.5 12.805625  Z " fill-rule="nonzero" fill="#d9001b" stroke="none" transform="matrix(1 0 0 1 93 260 )" />
  </g>
</svg>