﻿<?xml version="1.0" encoding="utf-8"?>
<svg version="1.1" xmlns:xlink="http://www.w3.org/1999/xlink" width="5px" height="5px" xmlns="http://www.w3.org/2000/svg">
  <g transform="matrix(1 0 0 1 -133 -693 )">
    <path d="M 1.08620689655172 4.5948275862069  C 1.08828551624034 2.69125907164221  2.63091424405601 1.14863034382655  4.53448275862069 1.14655172413793  L 4.53448275862069 0.284482758620691  C 2.15505284717417 0.287155110209188  0.226810282622981 2.21539767476037  0.22413793103448 4.5948275862069  L 1.08620689655172 4.5948275862069  Z " fill-rule="nonzero" fill="#3fc820" stroke="none" transform="matrix(1 0 0 1 133 693 )" />
  </g>
</svg>