﻿<?xml version="1.0" encoding="utf-8"?>
<svg version="1.1" xmlns:xlink="http://www.w3.org/1999/xlink" width="193px" height="64px" xmlns="http://www.w3.org/2000/svg">
  <defs>
    <filter x="127px" y="303px" width="193px" height="64px" filterUnits="userSpaceOnUse" id="filter1192">
      <feOffset dx="0" dy="3" in="SourceAlpha" result="shadowOffsetInner" />
      <feGaussianBlur stdDeviation="2.5" in="shadowOffsetInner" result="shadowGaussian" />
      <feComposite in2="shadowGaussian" operator="atop" in="SourceAlpha" result="shadowComposite" />
      <feColorMatrix type="matrix" values="0 0 0 0 0  0 0 0 0 0  0 0 0 0 0  0 0 0 0.2 0  " in="shadowComposite" />
    </filter>
    <g id="widget1193">
      <path d="M 132 310  A 5 5 0 0 1 137 305 L 310 305  A 5 5 0 0 1 315 310 L 315 354  A 5 5 0 0 1 310 359 L 137 359  A 5 5 0 0 1 132 354 L 132 310  Z " fill-rule="nonzero" fill="#ffffff" stroke="none" fill-opacity="0" />
    </g>
  </defs>
  <g transform="matrix(1 0 0 1 -127 -303 )">
    <use xlink:href="#widget1193" filter="url(#filter1192)" />
    <use xlink:href="#widget1193" />
  </g>
</svg>