﻿<?xml version="1.0" encoding="utf-8"?>
<svg version="1.1" xmlns:xlink="http://www.w3.org/1999/xlink" width="26px" height="5px" xmlns="http://www.w3.org/2000/svg">
  <g transform="matrix(1 0 0 1 -119 -714 )">
    <path d="M 24.1809961145232 0.405163949600695  C 24.1797517152294 0.405163949600695  24.1785073175345 0.405166771005419  24.1772629310345 0.405172413793103  L 0 0.405172413793103  L 0 2.12931034482758  C 0 3.55763297370032  1.15788426767898 4.71551724137931  2.58620689655172 4.71551724137931  L 15.5172413793103 4.71551724137931  C 16.9455640081831 4.71551724137931  18.1034482758621 3.55763297370032  18.1034482758621 2.12931034482758  L 18.1034482758621 1.26724137931035  L 20.5587284482759 1.26724137931034  C 20.7970584227169 1.57977275644685  21.1550588652029 1.77859678833491  21.5463362068966 1.81573275862069  L 24.1023706896552 2.0479525862069  C 24.1285041723906 2.05045987620554  24.1547426305064 2.05171567373863  24.1809961145232 2.05171567373863  C 24.6356788180477 2.05171567373863  25.0042719765922 1.68312251519415  25.0042719765922 1.22843981166966  C 25.0042719765922 0.773757108145173  24.6356788180477 0.405163949600695  24.1809961145232 0.405163949600695  Z " fill-rule="nonzero" fill="#3fc820" stroke="none" transform="matrix(1 0 0 1 119 714 )" />
  </g>
</svg>