﻿<?xml version="1.0" encoding="utf-8"?>
<svg version="1.1" xmlns:xlink="http://www.w3.org/1999/xlink" width="80px" height="17px" xmlns="http://www.w3.org/2000/svg">
  <g transform="matrix(1 0 0 1 -136 -391 )">
    <path d="M 79.375 4.44306250000001  C 79.375 2.33781250000001  77.6621875 0.625000000000014  75.5569375 0.625  L 1.9375 0.625  C 1.213 0.625  0.625 1.21299999999999  0.625 1.9375  L 0.625 7.1875  C 0.625 12.25375  4.74625 16.375  9.8125 16.375  L 49.1875 16.375  C 54.25375 16.375  58.375 12.25375  58.375 7.1875  L 58.375 3.25  L 62.483125 3.25  C 63.029125 5.55475  64.9650625 7.3148125  67.428625 7.53925  L 75.21175 8.24668750000001  C 75.3259375 8.2571875  75.4414375 8.2624375  75.555625 8.2624375  C 76.50325 8.2624375  77.4259375 7.9080625  78.13075 7.2649375  C 78.920875 6.54175000000001  79.375 5.51406250000001  79.375 4.44306250000001  Z M 55.75 3.25  L 55.75 7.1875  C 55.75 10.8060625  52.8060625 13.75  49.1875 13.75  L 9.8125 13.75  C 6.1939375 13.75  3.25 10.8060625  3.25 7.1875  L 3.25 3.25  L 55.75 3.25  Z M 76.75 4.4430625  C 76.75 4.783  76.6121875 5.0966875  76.3615 5.3250625  C 76.112125 5.5534375  75.7905625 5.6663125  75.4493125 5.630875  L 67.6661875 4.92343749999999  C 66.578125 4.82499999999999  65.6790625 4.16874999999999  65.2354375 3.25  L 75.5569375 3.25  C 76.2145 3.25  76.75 3.7855  76.75 4.4430625  Z " fill-rule="nonzero" fill="#7f7f7f" stroke="none" transform="matrix(1 0 0 1 136 391 )" />
  </g>
</svg>