﻿<?xml version="1.0" encoding="utf-8"?>
<svg version="1.1" xmlns:xlink="http://www.w3.org/1999/xlink" width="3px" height="4px" xmlns="http://www.w3.org/2000/svg">
  <g transform="matrix(1 0 0 1 -119 -699 )">
    <path d="M 0 1.61206896551724  C 0.952215085915161 1.61206896551724  1.72413793103448 2.38399181063656  1.72413793103448 3.33620689655173  L 2.58620689655172 3.33620689655173  C 2.58472202054692 1.90849977578347  1.42770712076825 0.751484876004803  0 0.750000000000001  L 0 1.61206896551724  Z " fill-rule="nonzero" fill="#3fc820" stroke="none" transform="matrix(1 0 0 1 119 699 )" />
  </g>
</svg>