﻿<?xml version="1.0" encoding="utf-8"?>
<svg version="1.1" xmlns:xlink="http://www.w3.org/1999/xlink" width="2px" height="2px" xmlns="http://www.w3.org/2000/svg">
  <g transform="matrix(1 0 0 1 -138 -693 )">
    <path d="M 0 1  L 2 1  L 0 1  Z " fill-rule="nonzero" fill="#3fc820" stroke="none" transform="matrix(1 0 0 1 138 693 )" />
  </g>
</svg>