﻿<?xml version="1.0" encoding="utf-8"?>
<svg version="1.1" xmlns:xlink="http://www.w3.org/1999/xlink" width="9px" height="9px" xmlns="http://www.w3.org/2000/svg">
  <g transform="matrix(1 0 0 1 -186 -356 )">
    <path d="M 1.90568750000001 7.6516875  C 2.64987500000001 8.3945625  3.63818750000001 8.8040625  4.6895 8.8040625  C 5.7408125 8.8040625  6.7304375 8.3945625  7.47331250000001 7.6516875  C 8.2175 6.9075  8.627 5.9191875  8.627 4.8665625  C 8.627 3.8139375  8.2175 2.825625  7.474625 2.08275  C 6.73175 1.33987500000001  7.474625 2.08275  7.474625 2.08275  C 5.9875625 0.595687500000004  3.3940625 0.595687500000004  1.907 2.08275  C 1.1628125 2.82693750000001  0.753312500000007 3.81525000000001  0.753312500000007 4.86787500000001  C 0.753312500000007 5.9205  1.1628125 6.9088125  1.90568750000001 7.6516875  Z M 3.3783125 4.8665625  C 3.3783125 4.5148125  3.5135 4.1866875  3.76287499999999 3.938625  C 4.009625 3.6905625  4.3390625 3.5540625  4.6908125 3.5540625  C 5.0425625 3.5540625  5.3706875 3.6905625  5.61875 3.938625  C 5.86681249999999 4.185375  6.0033125 4.5148125  6.0033125 4.8665625  C 6.0033125 5.2183125  5.86681249999999 5.5464375  5.61875 5.7945  C 5.1239375 6.29062500000001  4.25899999999999 6.29062500000001  3.76287499999999 5.7945  C 3.5148125 5.54775000000001  3.3783125 5.2183125  3.3783125 4.8665625  Z " fill-rule="nonzero" fill="#7f7f7f" stroke="none" transform="matrix(1 0 0 1 186 356 )" />
  </g>
</svg>