﻿<?xml version="1.0" encoding="utf-8"?>
<svg version="1.1" xmlns:xlink="http://www.w3.org/1999/xlink" width="4px" height="4px" xmlns="http://www.w3.org/2000/svg">
  <g transform="matrix(1 0 0 1 -128 -700 )">
    <path d="M 3.93103448275862 0.612068965517242  C 2.26539666564316 0.613850715468471  0.915574853399502 1.96367252771213  0.913793103448274 3.62931034482759  L 1.77586206896552 3.62931034482759  C 1.77586206896552 2.43904148743363  2.74076562536467 1.47413793103448  3.93103448275862 1.47413793103448  L 3.93103448275862 0.612068965517242  Z " fill-rule="nonzero" fill="#3fc820" stroke="none" transform="matrix(1 0 0 1 128 700 )" />
  </g>
</svg>