﻿<?xml version="1.0" encoding="utf-8"?>
<svg version="1.1" xmlns:xlink="http://www.w3.org/1999/xlink" width="9px" height="9px" xmlns="http://www.w3.org/2000/svg">
  <g transform="matrix(1 0 0 1 -137 -348 )">
    <path d="M 0.9375 2.9375  C 3.832875 2.9375  6.1875 5.292125  6.1875 8.1875  L 8.8125 8.1875  C 8.8125 3.8444375  5.2805625 0.3125  0.9375 0.3125  L 0.9375 2.9375  Z " fill-rule="nonzero" fill="#7f7f7f" stroke="none" transform="matrix(1 0 0 1 137 348 )" />
  </g>
</svg>