﻿<?xml version="1.0" encoding="utf-8"?>
<svg version="1.1" xmlns:xlink="http://www.w3.org/1999/xlink" width="54px" height="28px" xmlns="http://www.w3.org/2000/svg">
  <defs>
    <filter x="246px" y="367px" width="54px" height="28px" filterUnits="userSpaceOnUse" id="filter1185">
      <feOffset dx="0" dy="5" in="SourceAlpha" result="shadowOffsetInner" />
      <feGaussianBlur stdDeviation="2.5" in="shadowOffsetInner" result="shadowGaussian" />
      <feComposite in2="shadowGaussian" operator="atop" in="SourceAlpha" result="shadowComposite" />
      <feColorMatrix type="matrix" values="0 0 0 0 0  0 0 0 0 0  0 0 0 0 0  0 0 0 0.2 0  " in="shadowComposite" />
    </filter>
    <g id="widget1186">
      <path d="M 251 372  A 5 5 0 0 1 256 367 L 290 367  A 5 5 0 0 1 295 372 L 295 380  A 5 5 0 0 1 290 385 L 256 385  A 5 5 0 0 1 251 380 L 251 372  Z " fill-rule="nonzero" fill="#ffffff" stroke="none" fill-opacity="0" />
    </g>
  </defs>
  <g transform="matrix(1 0 0 1 -246 -367 )">
    <use xlink:href="#widget1186" filter="url(#filter1185)" />
    <use xlink:href="#widget1186" />
  </g>
</svg>