﻿<?xml version="1.0" encoding="utf-8"?>
<svg version="1.1" xmlns:xlink="http://www.w3.org/1999/xlink" width="26px" height="25px" xmlns="http://www.w3.org/2000/svg">
  <g transform="matrix(1 0 0 1 -27 -693 )">
    <path d="M 25.41220703125 12.586669921875  C 25.604833984375 12.089111328125  25.474560546875 11.535400390625  25.080126953125 11.1759765625  L 22.9681640625 9.251611328125  L 22.9681640625 2.87060546875  C 22.9681640625 2.464599609375  22.639013671875 2.135400390625  22.232958984375 2.135400390625  L 17.14921875 2.135400390625  C 16.743212890625 2.135400390625  16.414013671875 2.46455078125  16.414013671875 2.87060546875  L 16.414013671875 3.2794921875  L 13.863427734375 0.955419921875  C 13.37109375 0.50673828125  12.628662109375 0.506787109375  12.1365234375 0.95537109375  L 0.91982421875 11.176025390625  C 0.52548828125 11.535400390625  0.395166015625 12.089111328125  0.587841796875001 12.58662109375  C 0.780566406249999 13.084130859375  1.2498046875 13.40556640625  1.783349609375 13.40556640625  L 4 13.40556640625  L 4 23.645849609375  C 3.5748046875 24.05185546875  3.903955078125 24.3810546875  4.310009765625 24.3810546875  L 10.45810546875 24.3810546875  C 10.864111328125 24.3810546875  11.193310546875 24.051904296875  11.193310546875 23.645849609375  L 11.193310546875 17.428271484375  L 14.806640625 17.428271484375  L 14.806640625 23.6458984375  C 14.806640625 24.051904296875  15.135791015625 24.381103515625  15.541845703125 24.381103515625  L 21.689697265625 24.381103515625  C 22.095703125 24.381103515625  22.42490234375 24.051953125  22 23.6458984375  L 22 13.405615234375  L 24.21669921875 13.405615234375  C 24.7501953125 13.405615234375  25.219482421875 13.084130859375  25.41220703125 12.586669921875  Z M 23.730224609375 11.935205078125  L 21.689697265625 11.935205078125  C 21.28369140625 11.935205078125  20.9544921875 12.26435546875  21 12.67041015625  L 21 22.910693359375  L 16.277099609375 22.910693359375  L 16.277099609375 16.69306640625  C 16.277099609375 16.287060546875  15.947900390625 15.957861328125  15.54189453125 15.957861328125  L 10.45810546875 15.957861328125  C 10.052099609375 15.957861328125  9.722900390625 16.28701171875  9.722900390625 16.69306640625  L 9.722900390625 22.910693359375  L 5 22.910693359375  L 5 12.67041015625  C 5.045166015625 12.264404296875  4.716015625 11.935205078125  4.3099609375 11.935205078125  L 2.269775390625 11.935205078125  L 13.000048828125 2.157861328125  L 16.654150390625 5.4875  C 16.869384765625 5.68359375  17.180078125 5.734130859375  17.446337890625 5.6166015625  C 17.712646484375 5.49892578125  17.88447265625 5.23515625  17.88447265625 4.94404296875  L 17.88447265625 3.605810546875  L 21.4978515625 3.605810546875  L 21.4978515625 9.576318359375  C 21.4978515625 9.783203125  21.5849609375 9.980419921875  21.737890625 10.119775390625  L 23.730224609375 11.935205078125  Z " fill-rule="nonzero" fill="#000000" stroke="none" transform="matrix(1 0 0 1 27 693 )" />
  </g>
</svg>