﻿<?xml version="1.0" encoding="utf-8"?>
<svg version="1.1" xmlns:xlink="http://www.w3.org/1999/xlink" width="26px" height="25px" xmlns="http://www.w3.org/2000/svg">
  <g transform="matrix(1 0 0 1 -121 -689 )">
    <path d="M 20.81896875 14.73996875  C 21.1201875 15.04065625  21.52021875 15.20640625  21.94575 15.20640625  C 22.37128125 15.20640625  22.77184375 15.04065625  23.07253125 14.73996875  C 23.37375 14.43875  23.5395 14.03871875  23.5395 13.61265625  C 23.5395 13.18659375  23.37375 12.7865625  23.0730625 12.485875  C 22.47115625 11.88396875  21.42140625 11.88396875  20.8195 12.485875  C 20.51828125 12.78709375  20.35253125 13.187125  20.35253125 13.6131875  C 20.35253125 14.03925  20.51828125 14.43928125  20.81896875 14.73996875  Z M 21.41503125 13.61265625  C 21.41503125 13.47028125  21.46975 13.33746875  21.5706875 13.2370625  C 21.6705625 13.13665625  21.80390625 13.08140625  21.94628125 13.08140625  C 22.08865625 13.08140625  22.22146875 13.13665625  22.321875 13.2370625  C 22.42228125 13.3369375  22.47753125 13.47028125  22.47753125 13.61265625  C 22.47753125 13.75503125  22.42228125 13.88784375  22.321875 13.98825  C 22.12159375 14.1890625  21.7715 14.1890625  21.5706875 13.98825  C 21.47028125 13.888375  21.41503125 13.75503125  21.41503125 13.61265625  Z M 19.1875 5.875  C 19.1875 3.53165625  21.09415625 1.625  23.4375 1.625  L 23.4375 0.5625  C 20.5081875 0.5625  18.125 2.9456875  18.125 5.875  L 19.1875 5.875  Z M 0.59375 9.59375  C 1.7656875 9.59375  2.71875 10.5468125  2.71875 11.71875  L 3.78125 11.71875  C 3.78125 9.96084375  2.35165625 8.53125  0.59375 8.53125  L 0.59375 9.59375  Z M 16.53125 9.59375  C 14.480625 9.59375  12.8125 11.261875  12.8125 13.3125  L 13.875 13.3125  C 13.875 11.84784375  15.06659375 10.65625  16.53125 10.65625  L 16.53125 9.59375  Z M 24.5 1.625  L 24.5 0.5625  L 25.5625 0.5625  L 25.5625 1.625  L 24.5 1.625  Z M 21.3125 25  L 21.3125 23.9375  L 22.375 23.9375  L 22.375 25  L 21.3125 25  Z M 0.527343750000001 19.42984375  C -0.181874999999999 20.46365625  -0.0777499999999989 21.8921875  0.84025 22.8101875  C 1.34175 23.31221875  2.009 23.58846875  2.71875 23.58846875  C 3.4285 23.58846875  4.09521875 23.31221875  4.59725 22.8101875  C 4.70509375 22.70234375  4.803375 22.58121875  4.8958125 22.44415625  C 5.41271875 22.38678125  5.8903125 22.17375  6.2898125 21.84065625  L 8.3191875 24.2775  C 8.4148125 24.39225  8.554 24.4613125  8.70328125 24.46821875  C 8.71125 24.46875  8.71921875 24.46875  8.7271875 24.46875  C 8.86796875 24.46875  9.00290625 24.41296875  9.10278125 24.31309375  L 12.10965625 21.30621875  C 12.215375 21.2005  12.2716875 21.05546875  12.26478125 20.90671875  C 12.257875 20.7574375  12.1888125 20.61825  12.07459375 20.522625  L 9.63934375 18.49059375  C 9.971375 18.09109375  10.18440625 17.61403125  10.24071875 17.09871875  C 10.3783125 17.0068125  10.4994375 16.908  10.60728125 16.80015625  C 11.64321875 15.76475  11.64321875 14.07909375  10.60728125 13.0436875  C 10.10578125 12.54165625  9.43853125 12.26540625  8.72878125 12.26540625  C 8.18478125 12.26540625  7.66521875 12.42796875  7.22640625 12.73025  C 6.78759375 12.42796875  6.26803125 12.26540625  5.7235 12.26540625  C 5.01428125 12.26540625  4.34703125 12.54165625  3.84553125 13.04315625  C 3.73821875 13.15046875  3.63940625 13.27159375  3.54696875 13.40971875  C 2.94984375 13.47559375  2.39734375 13.739625  1.96703125 14.17046875  C 1.5361875 14.6013125  1.27215625 15.1538125  1.20628125 15.75040625  C 1.06815625 15.8423125  0.947031250000001 15.941125  0.839718750000001 16.04896875  C -0.0788124999999988 16.96696875  -0.182406249999999 18.3955  0.527343750000001 19.42984375  Z M 10.9478125 20.96621875  L 8.76278125 23.15071875  L 6.96609375 20.99278125  C 7.2014375 20.51625  7.293875 19.97384375  7.2184375 19.4378125  L 7.234375 19.421875  C 7.77253125 19.49784375  8.316 19.40434375  8.7930625 19.1679375  L 10.9478125 20.96621875  Z M 1.5925 19.80490625  C 1.79915625 19.59771875  1.79915625 19.2614375  1.5914375 19.05425  C 0.97040625 18.4326875  0.97040625 17.42171875  1.5914375 16.80015625  C 1.6891875 16.70240625  1.8103125 16.61634375  1.97234375 16.52975  C 2.1460625 16.43678125  2.2544375 16.25509375  2.25284375 16.058  C 2.25071875 15.62821875  2.4159375 15.225  2.71875 14.92165625  C 3.0194375 14.6215  3.4189375 14.45628125  3.8460625 14.45628125  L 3.85828125 14.45628125  C 4.0543125 14.45628125  4.23440625 14.3484375  4.32684375 14.17578125  C 4.4134375 14.01375  4.4995 13.89315625  4.59725 13.79540625  C 5.1996875 13.19296875  6.24890625 13.19296875  6.85134375 13.79540625  C 7.0505625 13.994625  7.4033125 13.994625  7.60253125 13.79540625  C 8.20496875 13.19296875  9.2541875 13.19296875  9.856625 13.79540625  C 10.47765625 14.41696875  10.47765625 15.4279375  9.856625 16.0495  C 9.75834375 16.14778125  9.63775 16.2333125  9.47678125 16.319375  C 9.30253125 16.41234375  9.19415625 16.59403125  9.19521875 16.79165625  C 9.197875 17.22196875  9.03265625 17.6251875  8.72984375 17.928  C 8.32821875 18.32909375  7.752875 18.4794375  7.19559375 18.3328125  C 7.01178125 18.28446875  6.817875 18.3370625  6.68453125 18.47040625  L 6.2675 18.88690625  C 6.133625 19.02078125  6.08103125 19.21575  6.129375 19.3985  C 6.2770625 19.95790625  6.12565625 20.531125  5.7245625 20.93275  C 5.423875 21.23290625  5.024375 21.398125  4.59725 21.398125  C 4.593 21.398125  4.58875 21.39759375  4.58503125 21.398125  C 4.389 21.398125  4.20890625 21.50596875  4.11646875 21.67915625  C 4.03040625 21.840125  3.944875 21.96125  3.84659375 22.059  C 3.22503125 22.6805625  2.2140625 22.6805625  1.5925 22.059  C 0.971468749999999 21.4374375  0.971468749999999 20.42646875  1.5925 19.80490625  Z " fill-rule="nonzero" fill="#000000" stroke="none" transform="matrix(1 0 0 1 121 689 )" />
  </g>
</svg>